…
oecd_table <- oecd_cleaned %>%
  count(country)
```

``` r
oecd_data %>%
  clean_names() %>%
  select(-c(flag_codes, indicator, frequency))
```

    ## # A tibble: 15,848 × 5
    ##    location subject measure  time value
    ##    <chr>    <chr>   <chr>   <dbl> <dbl>
    ##  1 AUS      TOT     AGRWTH   1951  2.97
    ##  2 AUS      TOT     AGRWTH   1952  2.55
    ##  3 AUS      TOT     AGRWTH   1953  2.07
    ##  4 AUS      TOT     AGRWTH   1954  1.94
    ##  5 AUS      TOT     AGRWTH   1955  2.37
    ##  6 AUS      TOT     AGRWTH   1956  2.45
    ##  7 AUS      TOT     AGRWTH   1957  2.28
    ##  8 AUS      TOT     AGRWTH   1958  2.10
    ##  9 AUS      TOT     AGRWTH   1959  2.17
    ## 10 AUS      TOT     AGRWTH   1960  2.17
    ## # … with 15,838 more rows
…
